Radfahren ohne Gepäck
0.1 ; 1
0.05 ; 1.67
0.02 ; 3.33
0 ; 5
-0.02 ; 5.7
-0.05 ; 6.9
-0.15 ; 8.3
  
PowerRad ohne Gepäck
# 500 m /h Steiggeschwindigkeit vorausgesetzt
0.1 ; 1.389
0.05 ; 2.74
0.02 ; 5.55
0 ; 6.6
-0.02 ; 6.7
-0.05 ; 6.8
-0.15 ; 8.3

#Achtung eine Leerzeile markiert das Ende des Datenbereiches.
Wandern nach Schweizer Norm
0.3 ; 0.2965599051
0.2 ; 0.4045307443
0.148 ; 0.499001996
0.1  ; 0.6361323155
0.05 ; 0.8912655971
0.02 ; 1.0101010101
0 ; 1.11111111
-0.02 ; 1.0615711253
-0.05 ; 0.9920634921
-0.1  ; 0.8912655971
-0.148 ; 0.7507507508
-0.2  ;  0.6361323155
-0.3  ; 0.496031746
-0.4  ; 0.4045307443
